<svg width="91.000000" height="100.000000" viewBox="0 0 91 100" fill="none" xmlns="http://www.w3.org/2000/svg" xmlns:xlink="http://www.w3.org/1999/xlink">
	<desc>
			Created with Pixso.
	</desc>
	<defs>
		<clipPath id="clip1_17">
			<rect id="paint" rx="-0.500000" width="90.000000" height="99.000000" transform="translate(0.500000 0.500000)" fill="white" fill-opacity="0"/>
		</clipPath>
	</defs>
	<g clip-path="url(#clip1_17)">
		<path id="Vector" d="M80.84 0L24.99 0C19.39 0 14.83 4.69 14.83 10.46L14.83 26.16C14.83 31.93 19.39 36.62 24.99 36.62L80.84 36.62C86.44 36.62 91 31.93 91 26.16L91 10.46C91 4.69 86.44 0 80.84 0Z" fill="#0177B8" fill-opacity="1.000000" fill-rule="nonzero"/>
		<path id="Vector" d="M54.66 65.52L54.66 55.67C54.66 50.24 50.22 45.82 44.77 45.82L10.18 45.82L10.18 16.27C4.73 16.27 0.3 20.69 0.3 26.12L0.3 45.82C0.3 51.25 4.73 55.67 10.18 55.67L44.77 55.67L44.77 65.52C43.46 65.52 42.21 66.04 41.28 66.96C40.35 67.89 39.83 69.14 39.83 70.45L39.83 95.07C39.83 96.38 40.35 97.63 41.28 98.55C42.21 99.48 43.46 100 44.77 100L54.66 100C55.97 100 57.23 99.48 58.15 98.55C59.08 97.63 59.6 96.38 59.6 95.07L59.6 70.45C59.6 69.14 59.08 67.89 58.15 66.96C57.23 66.04 55.97 65.52 54.66 65.52Z" fill="#0177B8" fill-opacity="1.000000" fill-rule="nonzero"/>
	</g>
</svg>
